…
The largest deer is the species Alces from the genus alces.


7. As measured by the data, which snake species has the smallest homerange? Show all of your work, please. Look this species up online and tell me about it!  

```r
snake <- homerange %>% 
  select(taxon, family, species, common.name, mean.hra.m2) %>% 
  filter(taxon=="snakes") %>% 
  arrange(mean.hra.m2)
snake
```

```
## # A tibble: 41 x 5
##    taxon  family     species      common.name          mean.hra.m2
##    <fct>  <chr>      <chr>        <chr>                      <dbl>
##  1 snakes viperidae  schneideri   namaqua dwarf adder         200 
##  2 snakes colubridae viridis      eastern worm snake          253 
##  3 snakes colubridae butleri      butlers garter snake        600 
##  4 snakes colubridae vermis       western worm snake          700 
##  5 snakes viperidae  latastei     snubnosed viper            2400 
##  6 snakes viperidae  shedaoensis  chinese pit viper          2614.
##  7 snakes colubridae punctatus    ringneck snake             6476 
##  8 snakes viperidae  piscivorous  cottonmouth               10655 
##  9 snakes colubridae rufodorsatus redbacked ratsnake        15400 
## 10 snakes colubridae catenifer    gopher snake              17400 
## # ... with 31 more rows
```
Namaqua dwarf adder has the smallest homerange. This is the smallest adder in the world, averaging around 20 cm. Females produce 3 – 7 young, each measuring 11 – 13 cm in length. It occurs in coastal dunes in Namaqualand and southern Namibia where it feeds on lizards and Rain frogs.

8. You suspect that homerange and mass are correlated in birds. We need a ratio that facilitates exploration of this prediction. First, build a new dataframe called `hra_ratio` that is limited to genus, species, mean.mass.g, log10.mass, log10.hra. Arrange it in ascending order by mean mass in grams.  


```r
hra_ratio <- homerange %>% 
  filter(taxon == "birds") %>% 
  select(genus, species, mean.mass.g, log10.mass, log10.hra) %>% 
  arrange(mean.mass.g)
hra_ratio
```

```
## # A tibble: 140 x 5
##    genus        species      mean.mass.g log10.mass log10.hra
##    <chr>        <chr>              <dbl>      <dbl>     <dbl>
##  1 regulus      regulus             5.15      0.712      4.30
##  2 regulus      ignicapillus        5.3       0.724      4.22
##  3 phylloscopus bonelli             7.5       0.875      4.54
##  4 aegithalos   caudatus            8         0.903      4.62
##  5 vireo        atricapillus        8.5       0.929      4.18
##  6 setophaga    magnolia            8.6       0.934      3.86
##  7 certhia      familiaris          8.77      0.943      4.67
##  8 sylvia       undata              8.8       0.944      3.45
##  9 setophaga    ruticilla           9         0.954      3.29
## 10 setophaga    virens              9         0.954      3.81
## # ... with 130 more rows
```



9. Replace the existing `hra_ratio` dataframe with a new dataframe that adds a column calculating the ratio of log 10 hra to log 10 mass. Call it `hra.mass.ratio`. Arrange it in descending order by mean mass in grams.  

```r
hra.ratio.mass <- hra_ratio %>% 
  mutate(hra.mass.ratio = log10.hra / log10.mass) %>% 
  arrange(mean.mass.g)

hra.ratio.mass
```

```
## # A tibble: 140 x 6
##    genus        species      mean.mass.g log10.mass log10.hra hra.mass.ratio
##    <chr>        <chr>              <dbl>      <dbl>     <dbl>          <dbl>
##  1 regulus      regulus             5.15      0.712      4.30           6.04
##  2 regulus      ignicapillus        5.3       0.724      4.22           5.82
##  3 phylloscopus bonelli             7.5       0.875      4.54           5.19
##  4 aegithalos   caudatus            8         0.903      4.62           5.12
##  5 vireo        atricapillus        8.5       0.929      4.18           4.49
##  6 setophaga    magnolia            8.6       0.934      3.86           4.13
##  7 certhia      familiaris          8.77      0.943      4.67           4.95
##  8 sylvia       undata              8.8       0.944      3.45           3.65
##  9 setophaga    ruticilla           9         0.954      3.29           3.45
## 10 setophaga    virens              9         0.954      3.81           3.99
## # ... with 130 more rows
```
…
